Paged HTML Document
…
## # A tibble: 1,800 × 6
## # Groups:   Sector, date [180]
##    Tickers date        Weight name           Sector     Portfolio
##    <chr>   <date>       <dbl> <chr>          <chr>      <chr>    
##  1 ABG     2019-10-31 0.0371  ABSA GROUP LTD Financials Benchmark
##  2 ABG     2019-11-30 0.0358  ABSA GROUP LTD Financials Benchmark
##  3 ABG     2019-12-31 0.0358  ABSA GROUP LTD Financials Benchmark
##  4 ABG     2020-01-31 0.00142 ABSA GROUP LTD Financials Benchmark
##  5 ABG     2020-02-29 0.0373  ABSA GROUP LTD Financials Benchmark
##  6 ABG     2020-03-31 0.0287  ABSA GROUP LTD Financials Benchmark
##  7 ABG     2020-04-30 0.0310  ABSA GROUP LTD Financials Benchmark
##  8 ABG     2020-05-31 0.0260  ABSA GROUP LTD Financials Benchmark
##  9 ABG     2020-06-30 0.0264  ABSA GROUP LTD Financials Benchmark
## 10 ABG     2020-07-31 0.0236  ABSA GROUP LTD Financials Benchmark
## # ℹ 1,790 more rows
…
